module codeberg.org/sinclear/presente

go 1.20

require (
	github.com/bwmarrin/discordgo v0.27.1
	github.com/joho/godotenv v1.5.1
)

require (
	github.com/gorilla/websocket v1.4.2 // indirect
	golang.org/x/crypto v0.0.0-20210421170649-83a5a9bb288b // indirect
	golang.org/x/sys v0.0.0-20201119102817-f84b799fce68 // indirect
)
